Date,Sirloin_steak_per_kg,Striploin_steak_per_kg,Roast_beef_topside_per_kg,Diced_beef_pieces_per_kg,Pork_loin_chops_per_kg,Pork_steak_per_kg,Lamb_whole_leg_per_kg,Lamb_loin_chops_per_kg,Lamb_gigot_chops_per_kg,Lambs_liver_per_kg,Ham_fillet_per_kg,Cooked_ham_per_kg,Best_back_rashers_per_kg,Pork_sausages_per_kg,1l_Milk,Irish_cheddar_per_kg,Butter_per_lb
19970101,10.225,null,null,null,7.23,10.762,7.268,11.143,7.806,4.24,7.277,10.452,8.144,3.71,0.8,7.311,2.032
19970201,10.508,null,null,null,7.321,10.486,7.531,11.104,7.801,4.329,7.235,10.422,8.021,3.653,0.799,7.225,2.032
19970301,10.315,null,null,null,7.391,10.714,7.507,11.191,7.772,4.318,7.17,10.439,8.064,3.694,0.799,7.298,2.032
19970401,10.797,null,null,null,7.33,10.666,7.926,11.642,8.197,4.407,7.259,10.422,8.091,3.687,0.799,7.258,2.033
19970501,10.662,null,null,null,7.794,10.927,8.609,11.623,8.059,4.378,7.358,10.705,8.37,3.784,0.799,7.305,2.035
19970601,10.719,null,null,null,7.861,11.092,7.692,10.789,7.639,4.344,7.356,10.659,8.468,3.798,0.799,7.291,2.034
19970701,10.772,null,null,null,7.493,10.891,7.629,10.473,7.507,4.326,7.516,10.851,8.569,3.804,0.799,7.32,2.034
19970801,10.706,null,null,null,7.819,10.764,7.561,10.36,7.321,4.297,7.705,10.969,8.566,3.804,0.799,7.315,2.035
19970901,10.343,null,null,null,7.631,10.774,7.504,10.441,7.171,4.265,7.611,11.101,8.263,3.823,0.799,7.344,2.034
19971001,10.677,null,null,null,7.344,10.682,7.446,10.497,7.257,4.241,7.541,11.037,8.477,3.841,0.799,7.348,2.03
19971101,10.251,null,null,null,7.507,10.913,7.455,10.342,7.248,4.309,7.564,11.061,8.286,3.847,0.799,7.339,2.019
19971201,10.725,null,null,null,7.574,10.837,7.419,10.195,7.084,4.306,7.504,11.15,8.47,3.828,0.799,7.348,2.028
19980101,10.474,null,null,null,7.361,10.833,7.362,10.168,7.108,4.263,7.5,11.176,8.026,3.819,0.799,7.315,2.027
19980201,10.15,null,null,null,7.499,10.878,7.281,10.192,7.183,4.268,7.455,11.119,8.032,3.844,0.799,7.357,2.032
19980301,10.301,null,null,null,7.453,10.725,7.061,10.098,7.107,4.245,7.354,11.051,8.398,3.854,0.799,7.319,2.032
19980401,10.745,null,null,null,7.387,10.536,7.844,10.918,7.448,4.247,7.191,11.223,8.357,3.871,0.799,7.325,2.03
19980501,10.87,null,null,null,7.23,10.431,7.72,10.992,7.631,4.297,7.234,11.098,8.387,3.864,0.799,7.298,2.029
19980601,10.985,null,null,null,7.415,10.755,7.618,10.554,7.329,4.309,7.312,11.145,8.421,3.869,0.799,7.296,2.03
19980701,11.047,null,null,null,7.447,10.557,7.447,10.694,7.352,4.242,7.179,10.817,8.387,3.873,0.799,7.39,2.028
19980801,10.812,null,null,null,7.373,10.53,7.3,10.21,7.194,4.256,7.15,10.931,8.321,3.892,0.799,7.4,2.028
19980901,10.55,null,null,null,7.632,10.63,7.084,10.465,7.037,4.278,7.154,10.936,8.345,3.906,0.799,7.438,2.023
19981001,10.493,null,null,null,7.197,10.268,6.924,10.086,7.127,4.257,7.029,10.868,8.227,3.883,0.797,7.66,2.023
19981101,10.235,null,null,null,7.121,10.107,6.787,9.678,6.807,4.2,7.114,10.971,8.214,3.902,0.797,7.709,2.023
19981201,10.361,null,null,null,7.238,10.103,6.73,9.658,6.747,4.204,7.166,11.028,8.269,3.907,0.799,7.453,2.021
19990101,10.419,null,null,null,6.832,10.115,6.812,9.754,6.641,4.224,7.065,11.056,7.91,3.92,0.799,7.457,2.019
19990201,10.532,null,null,null,6.919,10.053,6.76,9.677,6.831,4.256,7.018,11.111,8.04,3.885,0.797,7.665,2.021
19990301,10.417,null,null,null,7.216,9.99,7.027,9.984,7.207,4.227,7.144,11.084,8.057,3.893,0.797,7.462,2.02
19990401,10.657,null,null,null,7.185,9.81,7.643,10.759,7.63,4.331,7.046,11.231,7.926,3.899,0.799,7.484,2.025
19990501,10.785,null,null,null,7.305,10.022,7.702,11.275,7.884,4.369,7.161,11.217,8.101,3.922,0.797,7.452,2.02
19990601,10.877,null,null,null,7.052,10.075,7.697,11.435,7.566,4.362,7.06,11.273,8.076,3.917,0.797,7.474,2.02
19990701,10.912,null,null,null,7.362,9.499,7.432,10.977,7.296,4.364,7.071,11.278,8.272,3.923,0.805,7.49,2.009
19990801,10.916,null,null,null,7.408,9.994,7.391,11.068,6.957,4.358,7.155,11.482,8.291,3.957,0.804,7.526,2.021
19990901,10.92,null,null,null,7.461,10.069,7.39,10.446,6.516,4.322,7.272,11.536,8.422,3.957,0.805,7.688,2.027
19991001,10.883,null,null,null,7.339,9.932,6.916,10.557,6.728,4.388,7.02,11.546,8.298,3.992,0.811,7.768,2.033
19991101,10.852,null,null,null,7.31,10.08,7.023,10.246,6.784,4.397,7.218,11.599,8.66,4.026,0.815,7.682,2.029
19991201,10.797,null,null,null,7.375,10.026,7.145,10.689,6.829,4.402,7.302,11.546,8.784,4.061,0.815,7.7,2.028
20000101,11.186,null,null,null,7.58,9.744,7.276,10.762,6.872,4.317,7.221,11.602,8.765,4.059,0.816,7.69,2.029
20000201,11.087,null,null,null,7.358,9.976,7.573,11.136,7.217,4.401,7.031,11.749,8.795,4.085,0.818,7.725,2.018
20000301,11.228,null,null,null,7.255,10.239,7.545,11.796,7.61,4.581,7.033,11.929,8.936,4.068,0.819,7.739,2.028
20000401,11.515,null,null,null,7.538,10.277,7.838,11.962,7.695,4.579,7.211,11.849,8.883,4.095,0.82,7.728,2.032
20000501,11.139,null,null,null,7.739,10.291,8.788,12.675,8.288,4.604,7.245,11.834,8.743,4.101,0.82,7.707,2.032
20000601,11.812,null,null,null,7.814,10.614,7.552,11.268,7.218,4.652,7.537,12.036,8.844,4.1,0.822,7.702,2.046
20000701,12.16,null,null,null,7.8,10.527,7.626,11.593,7.38,4.629,7.897,12.294,9.157,4.134,0.822,7.676,2.032
20000801,11.918,null,null,null,7.804,10.373,7.582,11.623,7.395,4.632,8.128,12.261,9.272,4.17,0.795,7.679,2.047
20000901,11.753,null,null,null,7.85,10.76,7.457,11.71,7.42,4.657,8.045,12.579,9.183,4.167,0.794,7.696,2.025
20001001,12.125,null,null,null,7.766,10.572,7.691,11.741,7.469,4.664,8.161,12.516,9.168,4.175,0.795,7.663,2.02
20001101,12.018,null,null,null,7.894,10.873,7.711,11.784,7.484,4.598,8.223,12.785,9.301,4.216,0.797,7.742,2.024
20001201,11.868,null,null,null,8.001,10.925,7.998,12.08,7.804,4.656,8.195,12.775,9.361,4.263,0.806,7.756,2.027
20010101,12.118,null,null,null,8.012,10.905,8.233,12.395,7.91,4.715,8.084,12.88,9.287,4.287,0.81,7.753,2.029
20010201,12.155,null,null,null,7.922,10.77,8.848,13.02,8.651,4.806,7.93,12.785,9.369,4.297,0.819,8.114,2.025
20010301,12.125,null,null,null,8.655,11.376,10.404,15.025,9.89,5.021,8.206,13.01,9.877,4.373,0.82,8.313,2.034
20010401,12.187,null,null,null,8.874,11.656,10.805,15.636,10.432,5.052,8.594,13.318,10.195,4.462,0.825,8.327,2.033
20010501,12.253,null,null,null,8.997,11.788,10.795,16.22,10.524,5.09,8.649,13.316,10.418,4.528,0.818,8.337,2.035
20010601,12.338,null,null,null,8.822,11.736,10.545,16.284,10.515,5.175,8.821,13.307,10.671,4.576,0.815,8.415,2.03
20010701,12.606,null,null,null,8.968,11.649,10.555,15.923,10.265,5.148,8.854,13.482,10.896,4.562,0.82,8.599,2.03
20010801,12.531,null,null,null,8.749,11.736,10.428,16.029,10.047,5.141,8.749,13.586,10.621,4.525,0.83,8.85,1.996
20010901,12.526,null,null,null,8.832,11.27,10.108,16.163,10.107,5.137,8.856,13.883,10.616,4.547,0.833,8.893,2
20011001,12.804,null,null,null,8.343,11.908,10.229,16.136,10.117,5.134,8.746,13.718,10.562,4.588,0.851,9.023,2
20011101,12.429,null,null,null,8.817,11.242,10.555,17.023,10.55,5.186,8.84,13.72,10.629,4.591,0.851,9.057,1.999
20011201,12.095,16.448,8.726,7.041,8.92,11.27,10.268,17.227,10.613,5.135,8.769,13.622,9.916,4.499,0.841,8.79,1.977
20020101,12.354,16.762,8.648,7.156,8.978,11.632,10.068,17.317,10.617,5.2,8.499,13.195,9.783,4.46,0.842,8.553,1.969
20020201,12.404,16.826,8.666,7.095,8.897,11.413,10.207,17.389,10.667,5.216,8.467,13.237,9.8,4.463,0.845,8.609,1.968
20020301,12.524,16.998,8.495,7.244,8.654,11.74,10.332,17.382,10.666,5.259,8.684,13.105,9.778,4.498,0.844,8.792,1.958
20020401,12.558,16.943,8.604,7.23,9.001,11.765,10.422,17.629,10.752,5.331,8.698,13.576,10.027,4.473,0.846,8.865,1.944
20020501,12.87,17.381,8.546,7.314,9.106,11.275,9.723,16.733,10.092,5.039,9.015,13.591,10.228,4.561,0.847,8.879,1.941
20020601,12.871,17.309,8.616,7.282,8.486,11.66,9.751,17.33,10.187,5.275,9.094,13.815,9.967,4.513,0.848,8.852,1.97
20020701,12.807,17.607,8.604,7.249,9.007,11.503,9.568,16.062,9.384,5.276,9.063,13.903,10.335,4.663,0.85,8.818,1.981
20020801,12.816,17.409,8.761,7.069,8.985,11.424,9.49,15.189,8.788,5.205,8.9,13.834,10.647,4.735,0.848,8.956,1.983
20020901,12.764,17.537,8.693,6.895,9.2,11.674,9.139,15.342,9.064,5.332,9.065,14.382,10.594,4.725,0.847,8.983,1.966
20021001,12.02,17.438,8.795,7.408,8.993,11.761,9.25,15.365,9.148,5.356,9.133,14.189,10.875,4.743,0.848,8.94,1.96
20021101,12.567,17.343,8.789,7.501,9.048,11.321,9.157,15.183,9.088,5.45,9.38,14.328,11.006,4.79,0.848,8.934,1.961
20021201,11.986,17.3,8.751,7.484,8.905,11.091,9.282,15.3,9.15,5.461,9.225,14.525,10.776,4.824,0.85,9.021,1.963
20030101,12.465,17.196,8.633,7.126,9.065,11.796,9.385,15.657,9.228,5.377,9.302,14.11,11.031,4.731,0.853,8.952,1.963
20030201,12.603,17.298,8.404,7.335,8.48,11.754,9.354,15.696,9.234,5.401,9.266,14.522,10.551,4.764,0.854,8.897,1.971
20030301,12.743,17.762,8.509,7.415,9.01,11.804,9.449,15.81,9.303,5.392,9.073,14.383,10.815,4.812,0.856,9.003,1.952
20030401,12.916,17.681,8.761,7.329,9.042,11.809,9.75,16.131,9.646,5.404,9.093,14.69,10.676,4.792,0.848,8.993,1.949
20030501,12.838,17.598,8.433,7.372,9.048,11.605,10,16.668,10.373,5.415,9.115,14.751,10.801,4.705,0.861,8.991,1.965
20030601,12.981,17.338,8.574,7.298,9.115,11.021,10.909,17.457,10.71,5.473,9.236,14.538,11.038,4.739,0.857,9.105,1.942
20030701,12.293,18.281,8.814,7.471,8.666,11.687,10.508,16.341,10.105,5.472,9.049,14.612,11.013,4.693,0.859,9.172,1.929
20030801,12.4,18.368,8.586,7.566,9.147,11.803,10.331,16.467,10.132,5.501,8.935,15.088,10.978,4.729,0.856,9.263,1.932
20030901,13.018,18.417,8.419,7.433,9.044,11.689,9.643,15.968,9.607,5.507,9.141,15.049,11.074,4.703,0.855,9.301,1.954
20031001,12.983,18.329,8.582,7.443,9.13,11.664,9.99,16.1,9.708,5.52,9.143,15.166,11.031,4.678,0.853,9.269,1.932
20031101,12.6,18.234,8.643,7.602,9.19,11.37,9.894,14.821,9.525,5.479,9.104,14.756,10.879,4.678,0.852,9.299,1.913
20031201,12.561,18.482,8.624,7.556,9.099,11.668,9.94,15.651,9.615,5.441,8.88,14.829,10.717,4.703,0.857,9.356,1.917
20040101,13.078,18.538,8.646,7.57,9.177,11.765,9.906,15.35,9.726,5.383,8.719,14.817,11.119,4.676,0.858,9.397,1.923
20040201,13.241,18.528,8.631,7.548,9.117,11.837,9.855,15.559,9.961,5.343,8.583,14.742,11.307,4.684,0.856,9.41,1.919
20040301,13.109,18.595,8.668,7.503,9.209,11.907,10.27,15.819,10.059,5.322,8.522,15.048,10.88,4.644,0.854,9.287,1.86
20040401,13.33,18.703,8.7,7.511,9.197,11.231,11.045,16.416,10.312,5.498,8.236,15.235,11.001,4.665,0.854,9.294,1.859
20040501,13.196,18.736,8.608,7.404,9.197,11.244,11.1,16.944,11.063,5.483,8.509,14.91,10.953,4.624,0.854,9.302,1.843
20040601,13.44,18.74,8.831,7.599,9.176,12.006,11.33,16.557,11.529,5.469,8.401,15.276,11.005,4.892,0.85,9.328,1.842
20040701,13.27,18.788,8.801,7.539,8.945,11.848,11.399,16.829,9.895,5.494,8.494,15.281,11.137,4.938,0.849,9.343,1.831
20040801,12.995,18.732,8.751,7.578,9.215,11.833,10.438,14.982,10.072,5.511,8.271,15.613,10.961,5.007,0.849,9.363,1.834
20040901,12.642,18.67,8.985,7.652,9.118,11.995,9.92,16.475,10.495,5.512,8.616,15.444,10.72,5.077,0.85,9.37,1.845
20041001,12.106,18.086,8.856,7.499,9.433,12.166,10.176,15.661,9.582,5.432,8.44,16.063,11,5.167,0.851,9.382,1.84
20041101,12.402,18.577,8.554,7.491,9.361,12.234,10.334,15.714,9.779,5.519,8.577,15.916,10.864,5.143,0.848,9.401,1.821
20041201,11.798,18.727,8.829,7.592,8.998,12.161,11.012,16.161,10.318,5.531,8.645,16.006,11.179,5.351,0.847,9.294,1.816
20050101,12.5,18.48,8.766,7.384,9.21,12.044,10.783,16.356,10.191,5.551,8.802,15.686,11.255,5.388,0.847,9.341,1.814
20050201,12.793,18.951,8.841,7.774,9.306,11.455,10.272,15.943,9.975,5.532,8.092,15.618,11.29,5.302,0.845,9.357,1.819
20050301,12.666,18.266,8.913,7.707,8.57,11.987,9.823,16.078,10.117,5.464,8.177,15.99,11.239,5.289,0.846,9.37,1.817
20050401,11.837,17.429,8.479,7.643,8.98,11.225,9.978,15.031,10.239,5.572,8.274,15.809,10.858,5.278,0.845,9.422,1.813
20050501,11.048,17.699,8.516,7.571,8.631,11.428,10.393,16.272,10.67,5.536,8.125,15.911,10.953,5.255,0.849,9.419,1.807
20050601,11.964,17.444,8.249,7.666,8.992,11.527,9.801,15.502,10.332,5.446,8.1,16.178,11.049,5.304,0.851,9.295,1.811
20050701,11.989,17.368,8.268,7.633,9.034,11.427,9.834,15.06,9.709,5.438,8.386,15.896,11.008,5.348,0.854,9.437,1.818
20050801,11.698,17.183,8.338,7.687,9.041,11.03,9.493,15.106,9.31,5.406,8.167,15.199,11.101,5.339,0.853,9.604,1.819
20050901,10.94,17.676,8.377,7.698,8.849,11.584,9.802,14.663,9.534,5.448,8.031,16.139,11.321,5.345,0.853,9.538,1.811
20051001,11.653,17.093,8.11,7.489,8.841,11.093,9.516,15.266,9.592,5.43,8.221,16.043,11.417,5.347,0.847,9.617,1.814
20051101,11.81,17.387,8.155,7.638,8.843,10.985,9.772,14.799,9.781,5.416,8.166,16.228,11.502,5.38,0.843,9.712,1.817
20051201,11.254,17.185,8.524,7.805,8.866,11.568,9.886,15.19,10.121,5.452,8.179,16.437,11.257,5.46,0.85,9.741,1.83
20060101,12.125,17.916,8.586,7.726,8.384,11.726,9.948,15.249,10.076,5.46,7.98,16.294,11.326,5.42,0.848,9.842,1.827
20060201,12.192,18.282,8.794,7.81,8.647,11.918,9.769,15.722,9.928,5.43,7.866,15.812,11.299,5.432,0.849,9.739,1.822
20060301,12.112,18.281,8.72,7.831,8.829,11.836,9.2,15.876,10.277,5.348,7.688,16.326,11.293,5.445,0.849,9.845,1.819
20060401,12.333,18.636,8.786,7.874,8.334,11.741,9.682,16.233,10.244,5.307,7.613,16.232,11.367,5.526,0.852,9.883,1.832
20060501,12.588,18.9,8.784,7.919,8.982,11.897,11.059,17.774,11.285,5.373,7.771,16.69,11.651,5.511,0.85,9.9,1.817
20060601,12.364,18.452,8.781,7.758,8.839,11.546,10.085,16.036,10.047,5.414,7.853,16.218,11.719,5.509,0.853,9.879,1.802
20060701,13.987,19.991,9.226,7.984,8.726,11.707,10.944,16.548,9.559,5.386,8.094,16.146,11.521,5.6,0.855,9.811,1.804
20060801,13.861,20.258,9.313,8.066,9.087,11.582,10.206,17.041,10.071,5.39,8.126,16.136,11.662,5.622,0.854,9.884,1.786
20060901,13.497,20.368,9.179,8.146,8.95,11.733,10.503,17.066,10.094,5.306,8.14,16.204,11.476,5.546,0.856,9.809,1.766
20061001,13.714,20.393,9.372,8.306,9.071,12.138,10.978,16.312,10.189,5.367,8.354,16.269,11.569,5.687,0.853,9.693,1.779
20061101,13.492,20.143,9.156,8.269,9.051,12.043,10.284,16.76,9.891,5.387,8.413,16.25,11.682,5.479,0.856,9.698,1.779
20061201,13.39,20.427,9.228,8.375,9.04,12.275,11.051,16.406,9.986,5.382,7.891,16.304,11.321,5.46,0.849,9.584,1.751
20070101,13.86,20.614,9.636,8.343,8.752,12.378,10.388,16.884,10.228,5.388,7.817,16.521,11.204,5.472,0.852,9.564,1.742
20070201,14.715,20.279,9.716,8.463,9.117,11.823,10.278,17.042,10.289,5.404,7.991,16.557,11.405,5.455,0.852,9.447,1.761
20070301,14.552,19.543,9.719,8.524,8.754,11.654,10.131,16.982,9.934,5.393,7.732,16.302,11.314,5.422,0.86,9.38,1.783
20070401,13.686,20.758,9.645,8.456,9.05,11.677,10.482,16.694,10.481,5.36,7.863,16.373,11.506,5.467,0.873,9.45,1.812
20070501,14.813,20.595,9.227,8.465,8.986,11.27,11.146,17.929,10.799,5.374,7.928,16.472,11.376,5.681,0.879,9.573,1.816
20070601,14.503,21.074,9.708,8.453,9.057,12.224,10.191,17.023,10.262,5.245,7.86,16.784,11.277,5.713,0.89,9.439,1.824
20070701,14.678,21.153,9.609,8.467,8.868,11.874,10.208,16.987,10.101,5.412,7.73,16.938,11.317,5.774,0.889,9.735,1.822
20070801,13.39,20.71,9.771,8.572,9.09,11.732,9.822,17.185,11.12,5.395,7.835,16.435,11.403,5.717,0.901,9.927,1.813
20070901,14.908,20.789,9.63,8.636,9.056,11.804,10.501,16.132,10.794,5.068,7.832,16.858,11.447,5.664,0.905,9.85,1.817
20071001,14.677,20.985,9.562,8.599,9.06,11.679,10.786,17.34,10.273,5.367,7.963,17.111,11.102,5.723,0.973,10.227,2.119
20071101,14.118,20.871,9.228,8.678,9.111,12.076,10.853,16.75,10.242,5.396,7.784,17.345,11.557,5.666,0.995,10.437,2.198
20071201,13.47,20.201,9.615,8.625,8.916,11.795,10.87,16.621,10.491,5.445,7.877,17.651,11.259,5.675,1.012,10.824,2.234
20080101,14.38,21.808,10.051,8.845,8.505,12.42,10.598,18.098,11.524,5.493,7.76,17.57,11.262,5.724,1.017,10.783,2.232
20080201,15.118,22.39,10.288,9.087,8.416,12.192,10.291,18.055,11.651,5.493,7.817,17.536,11.279,5.843,1.083,11.35,2.3
20080301,13.992,22.768,10.526,9.173,9.44,11.714,11.445,18.344,11.483,5.481,7.635,17.721,11.542,5.884,1.112,11.649,2.317
20080401,15.6,22.725,10.554,9.247,9.155,12.367,11.948,17.838,11.819,5.576,7.56,18.011,11.579,5.958,1.119,11.773,2.33
20080501,15.646,22.791,10.729,9.166,9.389,12.835,12.124,19.418,12.024,5.525,7.645,18.553,11.61,5.805,1.122,11.866,2.349
20080601,15.125,23.737,10.306,9.403,8.477,12.471,12.159,18.639,11.657,5.499,7.635,18.669,11.715,5.928,1.122,11.79,2.353
20080701,15.919,23.701,11.038,9.391,8.469,12.882,11.766,19.006,11.819,5.483,7.49,18.38,11.777,6.004,1.128,11.459,2.355
20080801,15.901,23.126,10.285,9.463,8.778,12.425,11.115,18.531,12.109,5.454,7.76,18.852,11.783,5.791,1.127,11.936,2.313
20080901,14.767,23.123,10.753,9.067,9.304,11.8,11.465,17.088,12.038,5.491,7.907,18.354,11.821,6.044,1.127,11.74,2.314
20081001,15.476,23.387,11.199,9.336,8.798,12.166,12.088,17.233,12.193,5.472,7.944,17.941,12.039,6.091,1.128,11.725,2.341
20081101,15.528,22.874,10.489,9.451,8.449,11.998,11.65,17.912,10.962,5.016,7.442,18.834,12.244,6.16,1.131,11.936,2.356
20081201,15.669,21.814,10.772,9.523,8.444,11.942,10.814,16.897,11.093,5.304,7.535,18.908,12.205,6.139,1.134,11.916,2.351
20090101,15.841,23.808,11.214,9.702,8.69,11.363,10.935,17,11.952,5.514,7.703,18.892,12.1,6.135,1.133,12.006,2.322
20090201,14.515,22.252,11.313,9.718,9.457,11.714,10.813,17.92,11.097,5.566,7.561,18.203,12.046,5.94,1.13,11.783,2.34
20090301,15.615,22.611,10.818,9.678,9.306,11.155,11.004,18.136,12.224,5.513,7.456,17.336,12.174,6.105,1.128,11.822,2.342
20090401,13.381,22.288,10.807,9.609,9.26,11.062,11.819,17.84,11.833,5.491,7.528,17.853,11.902,5.921,1.129,11.961,2.335
20090501,14.965,21.499,10.39,9.291,8.907,11.191,11.879,18.001,12.098,5.473,7.629,18,12.235,6.042,1.111,11.812,2.316
20090601,14.595,19.466,11.034,9.319,9.392,9.65,11.383,18.021,11.745,5.573,7.492,18.708,12.178,5.867,1.116,11.917,2.315
20090701,14.642,21.237,10.798,9.282,8.76,9.577,10.741,17.683,11.292,5.501,7.242,18.536,12.356,5.885,1.114,11.955,2.312
20090801,14.472,21.049,10.286,9.316,9.061,10.064,10.774,17.159,11.669,5.473,7.21,18.572,12.236,5.989,1.116,11.658,2.306
20090901,13.094,20.86,10.683,9.3,9.16,9.885,10.422,16.88,11.665,5.381,6.899,18.388,12.125,5.909,1.11,11.854,2.298
20091001,14.305,20.539,10.786,9.128,9.116,10.435,10.457,16.547,11.289,5.21,6.866,17.77,11.977,5.888,1.111,11.793,2.285
20091101,14.14,20.7,10.591,9.189,8.812,10.588,10.772,16.912,10.819,5.142,7.054,17.488,11.701,5.993,1.105,11.843,2.292
20091201,13.729,20.433,10.517,8.982,9.192,9.903,10.447,16.698,11.514,5.16,7.129,17.79,11.993,5.807,1.104,12.051,2.303
20100101,13.42,20.676,10.54,9.204,8.257,10.388,11.104,16.656,10.978,5.031,6.712,17.398,12.074,5.754,1.108,12.099,2.308
20100201,13.86,20.011,10.222,8.824,8.662,10.377,11.41,17.132,11.983,5.178,6.85,17.13,11.787,5.464,1.106,11.896,2.298
20100301,13.714,19.628,10.664,9.037,8.948,10.025,11.27,17.183,12.025,5.137,6.801,16.788,11.568,5.475,1.111,11.805,2.289
20100401,13.092,19.796,10.571,8.869,8.799,9.956,11.597,17.509,11.792,5.243,6.713,16.941,11.415,5.415,1.112,10.932,2.286
20100501,13.985,20.251,10.588,9.123,8.63,9.584,11.511,18.409,12.229,5.314,6.755,16.901,11.121,5.436,1.112,10.654,2.282
20100601,13.888,20.246,10.775,9.067,8.717,10.128,11.247,18.811,12.16,5.393,6.55,16.799,11.501,5.534,1.11,11.142,2.287
20100701,14.239,20.367,10.43,9.226,8.82,9.77,10.686,17.546,11.446,5.494,6.332,16.951,11.53,5.618,1.111,10.922,2.293
20100801,14.039,20.149,10.451,9.109,8.904,9.455,10.361,17.111,11.608,5.519,6.503,17.066,11.518,5.64,1.109,11.523,2.292
20100901,12.663,20.35,10.111,9.277,8.392,9.435,11.19,17.349,11.782,5.464,6.466,17.639,11.327,5.774,1.107,11.462,2.443
20101001,12.76,20.398,10.78,8.941,8.739,9.68,10.377,16.424,11.964,5.467,6.166,17.499,11.473,5.793,1.109,11.537,2.546
20101101,13.975,20.262,10.874,9.159,8.305,9.74,11.176,17.295,11.788,5.454,6.27,17.481,11.243,5.803,1.108,11.453,2.559
20101201,13.807,20.171,10.102,9.22,8.652,9.705,10.752,17.624,12.209,5.527,6.369,17.412,11.334,5.67,1.113,11.402,2.577
20110101,13.362,20.061,11.109,9.232,8.463,9.526,11.567,17.978,12.186,5.571,6.481,17.243,11.668,5.62,1.103,10.858,2.539
20110201,13.651,19.016,11.027,9.193,8.678,9.1,11.392,16.973,12.244,5.506,6.55,17.175,11.28,5.67,1.118,10.979,2.56
20110301,13.392,20.199,10.831,9.219,8.478,9.71,11.508,17.529,12.215,5.586,6.466,17.319,11.582,5.681,1.12,11.536,2.56
20110401,13.444,20.292,10.598,8.344,8.534,9.127,11.88,18.21,12.414,5.623,6.548,16.917,11.593,5.489,1.104,11.338,2.557
20110501,13.876,20.547,10.595,9.145,8.148,9.24,12.716,18.057,12.908,5.603,6.369,17.15,11.391,5.715,1.103,11.042,2.554
20110601,13.94,20.768,10.669,9.365,8.273,9.125,11.709,18.752,12.711,5.632,6.138,17.499,11.496,5.774,1.107,11.871,2.652
20110701,14.804,21.427,11.215,9.211,8.154,9.594,11.569,18.891,12.001,5.614,6.162,17.227,11.314,5.642,1.104,11.945,2.764
20110801,14.449,21.575,11.094,9.274,8.552,9.427,11.413,17.258,12.757,5.584,6.063,17.332,11.495,5.759,1.105,11.922,2.789
20110901,14.429,21.706,11.141,9.502,8.329,9.252,11.128,18.588,12.73,5.602,5.99,17.24,11.364,5.853,1.104,11.631,2.769
20111001,14.577,21.629,10.903,9.412,8.321,9.391,10.739,18.904,12.477,5.61,5.939,17.228,11.335,5.831,1.105,12.136,2.791
20111101,15.156,20.619,11.554,9.099,8.819,9.344,12.005,17.729,12.887,5.551,6.071,17.875,11.657,6.016,1.091,12.22,2.806
20111201,15.007,19.518,11.525,9.62,8.367,9.067,12.024,17.977,12.876,5.566,6.142,15.99,10.283,5.43,1.082,11.394,2.738
20120101,15.093,20.922,11.259,9.706,8.399,9.34,12.527,18.601,13.138,5.626,6.231,16.341,10.349,5.431,1.055,10.701,2.769
20120201,15.112,20.077,11.389,9.969,8.419,9.079,11.197,18.169,12.922,5.524,6.041,15.955,10.775,5.461,1.05,11.368,2.771
20120301,14.936,21.495,11.615,9.897,8.448,9.038,11.859,18.146,13,5.671,6.101,15.698,10.613,5.383,1.052,11.026,2.769
20120401,15.338,22.242,11.865,10.004,8.526,9.382,12.558,19.526,13.218,5.669,6.063,16.248,10.968,5.577,1.053,11.146,2.768
20120501,15.257,22.212,11.671,10.102,8.581,9.342,12.114,19.723,13.161,5.711,5.884,16.61,10.772,5.453,1.052,11.369,2.778
20120601,15.611,21.763,11.616,9.985,7.824,9.723,11.639,19.507,13.228,5.695,6.018,16.181,10.74,5.497,1.049,11.569,2.785
20120701,15.764,21.998,12.154,10.229,8.226,9.108,10.912,19.623,13.32,5.687,6.055,16.309,10.663,5.529,1.055,11.243,2.768
20120801,15.515,22.062,12.024,10.237,8.272,9.512,12.125,19.121,12.871,5.692,6.079,16.574,10.762,5.476,1.05,10.959,2.735
20120901,16.105,22.148,11.635,10.045,8.276,9.402,12.216,18.849,12.944,5.709,6.001,16.786,10.729,5.689,1.051,11.061,2.611
20121001,15.917,22.228,12.218,10.161,8.651,9.364,11.573,18.746,12.879,5.746,5.995,16.764,10.726,5.817,1.052,10.848,2.73
20121101,15.477,21.556,12.19,10.196,8.536,9.493,12.1,16.803,12.996,5.702,6.006,16.788,10.763,5.757,1.05,11.056,2.732
20121201,15.818,21.915,12.425,10.284,8.593,9.376,11.054,18.124,12.902,5.766,6.057,16.829,10.696,5.79,1.056,11.1,2.753
20130101,16.197,22.483,12.675,10.267,8.562,9.595,11.106,18.765,13.083,5.782,6.051,16.706,10.887,5.953,1.05,10.703,2.75
20130201,16.032,20.446,12.71,10.242,8.511,9.605,12.378,17.458,13.042,5.804,6.189,17.004,10.988,5.982,1.046,11.376,2.734
20130301,15.47,20.997,12.808,9.69,8.96,9.202,11.629,16.841,12.955,5.821,6.046,17.211,10.85,6.143,1.047,10.723,2.717
20130401,16.138,21.918,12.617,10.265,8.773,9.494,12.332,17.951,12.988,5.785,5.967,16.907,10.83,6.129,1.049,10.626,2.741
20130501,15.89,22.445,12.664,10.284,8.249,9.535,11.756,17.783,13.216,5.854,6.036,17.55,11.036,6.166,1.042,10.999,2.718
20130601,16.982,22.628,12.534,10.333,8.538,9.587,12.239,18.084,12.658,5.874,6.045,17.461,10.897,6.152,1.077,11.125,2.742
20130701,16.748,23.094,12.65,10.415,8.882,9.669,11.202,18.383,12.865,5.915,5.851,17.933,10.817,6.22,1.081,11.342,2.739
20130801,16.722,22.925,13.07,9.887,8.625,9.738,11.272,18.98,12.941,6.031,5.881,17.968,10.889,5.967,1.078,10.979,2.742
20130901,16.69,23.217,12.522,9.785,8.547,9.504,11.653,18.569,12.886,5.92,5.885,17.637,10.645,6.007,1.08,10.694,2.784
20131001,16.634,23.267,12.95,10.419,8.751,9.688,12.085,18.667,12.963,5.969,5.908,17.988,10.775,5.933,1.082,10.869,2.783
20131101,16.447,23.014,13.263,10.583,8.499,9.678,11.397,17.152,11.907,5.911,6.072,18.105,10.707,5.92,1.072,11.407,2.785
20131201,16.221,22.865,13.342,10.545,8.419,9.79,11.34,18.393,12.737,5.812,6.026,18.071,10.678,5.968,1.057,11.312,2.783
20140101,16.287,23.129,13.418,10.585,8.116,9.474,11.226,17.792,12.79,5.812,6.005,17.494,10.51,5.798,1.05,11.048,2.783
20140201,15.106,21.297,13.639,10.598,8.348,9.638,11.441,18.969,12.898,5.79,5.99,18.301,10.684,6.057,1.054,11.371,2.797
20140301,16.215,22.286,12.139,10.703,8.911,9.063,12.054,17.162,13.073,5.689,6.064,18.228,10.446,6.073,1.057,11.249,2.763
20140401,15.197,22.777,12.458,10.564,8.901,9.394,11.792,18.837,12.999,5.747,5.859,18.007,10.458,6.036,1.054,11.354,2.764
20140501,16.573,23.072,12.794,10.625,8.101,9.535,12.781,18.511,13.2,5.751,5.856,17.538,10.693,6.027,1.051,11.076,2.742
20140601,16.568,22.603,12.664,10.734,8.423,9.306,12.213,18.025,12.971,5.741,5.84,17.56,10.803,6.043,1.051,11.121,2.748
20140701,16.771,22.501,13.164,10.671,8.687,9.672,12.474,16.867,12.832,5.74,5.946,17.623,10.803,5.96,1.055,11.028,2.762
20140801,16.299,22.388,13.186,10.475,8.105,9.512,12.269,17.552,12.881,5.792,5.919,17.208,10.522,6.024,1.057,11.064,2.762
20140901,16.248,23.162,13.267,9.705,8.612,9.538,11.988,18.853,12.767,5.767,5.947,17.376,10.758,5.948,1.054,10.931,2.751
20141001,16.254,22.977,12.846,10.064,8.25,9.419,10.983,16.746,12.415,5.754,5.75,17.694,10.947,5.843,1.054,10.397,2.729
20141101,16.412,20.628,13.114,10.551,8.655,9.697,11.363,17.729,12.75,5.779,5.901,17.949,10.598,5.732,1.056,10.624,2.738
20141201,16.369,20.341,12.6,10.578,8.098,9.509,11.461,16.573,12.751,5.811,5.849,17.781,10.651,5.881,1.056,10.54,2.727
20150101,16.548,22.765,13.003,10.514,7.819,9.697,11.683,17.319,12.875,5.846,5.903,17.967,10.475,5.843,1.053,10.82,2.727
20150201,15.101,20.925,12.464,10.578,7.921,9.318,11.995,16.899,13.131,5.877,5.99,17.904,10.368,5.864,1.051,10.655,2.716
20150301,15.53,21.709,13.239,10.649,8.318,8.827,11.736,18.019,13.324,5.858,5.818,17.598,10.462,5.858,1.046,10.515,2.751
20150401,15.904,22.368,13.044,10.11,7.768,9.427,12.918,18.182,13.467,5.858,5.831,17.463,10.319,5.772,1.052,10.194,2.735
20150501,16.283,22.245,13.284,10.618,8.11,9.185,12.311,17.815,12.588,5.854,5.869,17.684,10.264,5.959,1.05,10.606,2.716
20150601,16.08,21.655,13.404,10.49,8,9.435,12.075,18.1,13.251,5.867,5.855,17.446,10.281,5.865,1.047,10.493,2.728
20150701,15.824,21.92,12.993,10.344,8.501,8.777,11.082,18.028,12.928,5.826,5.792,16.921,10.035,5.913,1.047,10.288,2.73
20150801,15.115,22.837,12.901,10.353,7.9,9.221,10.778,18.742,13.103,5.818,5.895,17.347,10.192,5.947,1.044,10.304,2.725
20150901,16.192,22.961,13.033,10.142,8.439,9.573,11.57,16.905,12.996,5.836,5.842,16.506,10.255,5.95,1.046,10.701,2.732
20151001,15.913,23.063,13.101,10.407,8.516,9.548,10.98,17.014,12.11,5.828,5.862,17.254,10.285,5.92,1.047,10.52,2.734
20151101,16.019,21.808,13.03,9.906,8.329,9.609,11.876,18.374,12.492,5.851,5.783,16.918,10.133,5.847,1.046,10.236,2.719
20151201,16.327,22.604,13.057,10.421,7.409,9.333,11.231,18.384,12.587,5.917,5.761,16.651,9.785,5.961,1.052,10.623,2.725
20160101,16.277,23.213,12.293,9.981,7.91,9.46,11.217,18.2,12.708,5.917,5.918,16.916,9.807,5.902,1.05,10.205,2.727
20160201,15.934,22.563,13.058,10.409,8.237,9.446,12.009,18.014,12.793,5.885,5.823,16.988,9.834,6,1.055,10.466,2.72
20160301,15.248,21.705,13.557,10.559,8.377,8.8,11.345,17.904,12.962,5.878,5.773,16.841,9.85,6.06,1.051,10.936,2.698
20160401,15.8,21.298,13.675,9.837,8.357,8.761,11.811,16.904,12.628,5.885,5.8,17.604,10.022,5.97,1.052,10.453,2.7
20160501,16.249,22.674,13.696,10.42,7.752,9.172,12.454,17.02,12.563,5.89,5.655,17.433,9.471,5.957,1.049,10.046,2.689
20160601,16.065,23.029,12.917,10.438,8.595,8.783,12.087,18.212,12.484,5.888,5.699,17.893,9.688,5.912,1.05,10.405,2.647
20160701,15.029,21.12,13.755,10.637,7.642,8.872,11.675,18.142,12.525,5.855,5.79,17.597,9.999,5.976,1.052,10.399,2.661
20160801,15.456,23.219,13.152,10.598,8.055,8.633,11.133,17.863,12.513,5.818,5.757,17.539,9.875,5.944,1.057,10.095,2.655
20160901,15.789,23.153,13.647,9.985,8.582,9.084,11.64,16.69,12.346,5.812,5.694,17.344,9.921,5.883,1.053,10.102,2.654
20161001,15.893,22.998,13.65,10.058,8.212,9.191,10.982,16.32,11.953,5.813,5.664,17.943,10.037,5.854,1.052,10.057,2.653
20161101,16.12,22.662,13.371,10.512,8.031,8.932,11.987,18.503,12.79,5.831,5.517,17.573,9.952,5.846,1.05,9.836,2.655
20161201,15.086,20.793,12.761,10.583,7.556,9.156,11.854,18.205,null,5.847,5.578,18.38,9.778,5.812,1.049,10.369,2.654
20170101,16.725,22.971,12.796,10.588,7.985,9.332,12.316,17.545,null,5.845,5.737,17.84,9.598,5.774,1.051,10.203,2.658
20170201,14.956,20.483,12.792,10.574,7.853,9.295,11.59,17.438,null,5.775,5.725,18.115,9.784,5.819,1.047,10.056,2.65
20170301,16.023,22.424,13.13,10.51,8.194,9.067,10.528,17.322,null,5.801,5.665,17.591,9.746,5.867,1.048,9.859,2.813
20170401,15.526,22.386,12.241,9.852,7.964,9.024,11.834,17.555,null,5.785,5.716,17.769,9.865,5.807,1.044,10.089,2.848
20170501,16.329,22.526,13.195,10.637,8.121,9.051,12.084,17.888,null,5.772,5.801,18.026,9.635,6.001,1.042,9.992,2.852
20170601,15.293,22.724,13.387,10.625,7.756,8.913,11.911,18.199,null,5.758,5.792,17.885,9.954,6.05,1.04,9.695,2.856
20170701,14.613,22.799,13.928,10.685,7.758,9.334,11.741,17.826,null,5.744,5.737,17.922,9.709,6.043,1.045,9.979,2.891
20170801,15.298,21.711,13.554,10.757,7.701,9.048,11.87,17.63,null,5.753,5.699,17.814,9.906,6.077,1.049,10.284,2.95
20170901,16.369,22.931,13.716,10.429,7.548,8.943,10.731,18.656,null,5.729,5.685,17.751,10.002,6.06,1.047,9.564,2.916
20171001,15.565,22.696,13.659,10.844,8.089,8.774,11.817,16.383,null,5.845,5.733,18.605,10.089,6.062,1.048,9.828,2.967
20171101,16.018,21.069,13.27,10.873,7.747,9.205,12.32,17.303,null,5.864,5.645,17.778,9.929,6.084,1.034,9.349,2.921
20171201,15.117,20.44,13.405,10.799,7.78,9.238,11.576,18.018,null,5.899,5.564,18.146,9.643,5.991,1.042,9.685,3.014
20180101,16.127,20.429,13.598,10.851,8.254,9.299,11.861,16.657,null,5.912,5.647,17.841,9.764,6.073,1.038,9.611,3.005
20180201,15.971,19.978,13.286,10.001,7.648,8.827,11.441,16.797,null,5.879,5.512,18.248,9.71,5.991,1.043,10.092,2.988
20180301,14.32,21.35,13.249,10.618,7.559,9.026,11.391,17.522,null,5.918,5.453,18.087,9.752,5.93,1.047,9.932,3.01
20180401,14.97,20.837,13.782,9.998,7.635,8.96,12.111,17.381,null,5.881,5.541,18.254,9.467,5.839,1.043,10.034,3.003
20180501,15,21.396,13.669,10.373,8.209,8.448,12.475,18.552,null,5.812,5.552,17.435,9.739,6.046,1.044,9.846,2.997
20180601,14.455,20.089,13.817,10.39,7.51,8.751,11.575,17.346,null,5.752,5.47,18.119,9.535,5.908,1.033,9.832,2.988
20180701,13.885,21.153,13.682,10.257,8.242,8.462,11.084,17.546,null,5.825,5.499,18.101,9.412,5.896,1.037,9.726,3.126
20180801,15.253,21.047,13.61,10.4,7.515,8.776,11.079,16.981,null,5.792,5.517,18.236,9.451,6.005,1.035,9.894,3.04
