"","Mart Sheep 30-39kg","Mart Sheep 40-49kg","Mart Sheep 50-59kg"
"Source: Central Statistics Office, Ireland."
"1976M01","19.62","25.98","29.33"
"1976M02","20.95","26.54","30.87"
"1976M03","20.86","29.09","34.87"
"1976M04","26.04","32.53","42.14"
"1976M05","24.89","32.45","36.68"
"1976M06","23.73","30.22","36.06"
"1976M07","24.28","30.91","36.75"
"1976M08","25.42","31.68","36.75"
"1976M09","23.97","31.39","38.17"
"1976M10","29.56","35.31","42.29"
"1976M11","26.89","35.74","40.94"
"1976M12","25.33","34.26","39.54"
"1977M01","26.63","35.71","42.12"
"1977M02","23.83","35.18","40.54"
"1977M03","27.35","36.09","42.99"
"1977M04","35.01","35.71","41.13"
"1977M05","28.16","34.46","37.61"
"1977M06","25.81","32.75","38.02"
"1977M07","25.1","31.77","36.44"
"1977M08","25.24","29.32","34.14"
"1977M09","23.9","30.66","35.55"
"1977M10","28.02","32.1","36.01"
"1977M11","26.08","32.05","36.5"
"1977M12","25.04","33.05","37.66"
"1978M01","31.41","39.9","44.71"
"1978M02","33.43","40.14","44.17"
"1978M03","37.29","42.37","47.36"
"1978M04","40.29","45.74","52.2"
"1978M05","44.68","52.72","59.11"
"1978M06","40.66","51.22","59.83"
"1978M07","38.83","49.29","56.43"
"1978M08","41.38","50.26","57.66"
"1978M09","40.3","52.8","60.1"
"1978M10","41.06","52.34","59.11"
"1978M11","42.32","53.68","61.47"
"1978M12","39.41","53.62","62.06"
"1979M01","40.7","56.31","65.42"
"1979M02","41.46","56.31","66.62"
"1979M03","43.86","60.8","71.38"
"1979M04","49.11","61.14","78.56"
"1979M05","53.27","64.3","78.11"
"1979M06","48.45","61.63","71.05"
"1979M07","45.22","55.96","63.36"
"1979M08","44.15","53.94","61.01"
"1979M09","40.58","52.16","59.39"
"1979M10","40.03","50.03","57.54"
"1979M11","37.34","47.98","54.81"
"1979M12","37.46","48.14","56.81"
"1980M01","38.05","50.29","56.78"
"1980M02","37.77","52.39","60.01"
"1980M03","43.53","58.18","68.35"
"1980M04","48.62","56.72","64.06"
"1980M05","47.13","57.21","56.62"
"1980M06","41.81","52.54","61.21"
"1980M07","37.34","48.26","56.24"
"1980M08","34.74","44.89","53.11"
"1980M09","35.73","45.85","53.21"
"1980M10","33.62","45.39","51.81"
"1980M11","36.07","47.46","54.14"
"1980M12","40.23","50.64","57.96"
"1981M01","44.67","56.31","66.37"
"1981M02","48.11","61.02","69.4"
"1981M03","46.24","60.16","72.01"
"1981M04","56.94","64.93","72.22"
"1981M05","60.26","70.6","76.32"
"1981M06","54.97","67.89","79.73"
"1981M07","49.79","61.87","73.43"
"1981M08","48.31","60.83","69.01"
"1981M09","49.2","63.14","73.39"
"1981M10","48.45","61.53","72.54"
"1981M11","51.17","63.46","74.01"
"1981M12","52.03","65.73","77.58"
"1982M01","51.23","65.52","78.52"
"1982M02","49.67","64.93","77.2"
"1982M03","47.48","65.1","77.73"
"1982M04","56.91","67.99","73.11"
"1982M05","54.66","65.9","71.05"
"1982M06","53.04","63.66","71.92"
"1982M07","51.12","61.16","69.95"
"1982M08","50.36","58.92","68.15"
"1982M09","50.92","60.01","69.45"
"1982M10","48.16","58.62","68.83"
"1982M11","49.46","61.58","70.95"
"1982M12","48.81","62.15","71.68"
"1983M01","49.98","64.44","73.39"
"1983M02","51.92","65.61","77.23"
"1983M03","58.53","67.75","79.19"
"1983M04","63.04","70.58","82.7"
"1983M05","65.04","74.48","81.66"
"1983M06","56.17","68.82","77.66"
"1983M07","49.67","61.18","69.45"
"1983M08","50.36","60.07","69.47"
"1983M09","52.62","62.65","72.82"
"1983M10","50.37","62.5","73.16"
"1983M11","50.31","63.32","72.58"
"1983M12","48.03","63.41","72.78"
"1984M01","49.79","65.84","76.41"
"1984M02","57.62","71.89","83.38"
"1984M03","61.3","78.52","96.16"
"1984M04","67.22","81.17","95.14"
"1984M05","61.19","71.24","78.15"
"1984M06","49.7","61.4","70.39"
"1984M07","50.41","59.53","68.18"
"1984M08","49.47","59.77","69.63"
"1984M09","49.28","59.23","68.83"
"1984M10","48.75","60.03","68.49"
"1984M11","49.61","60.97","70.47"
"1984M12","50.36","60.68","70.48"
"1985M01","50.14","63.66","72.5"
"1985M02","50.32","63.16","71.47"
"1985M03","47.81","61.59","68.77"
"1985M04","60.19","67.25","70.64"
"1985M05","56.71","66.04","74.11"
"1985M06","51.39","60.88","69.1"
"1985M07","48.64","57.09","64.32"
"1985M08","46.84","55.84","65.05"
"1985M09","45.33","56.22","66.74"
"1985M10","47.26","58.46","66.95"
"1985M11","48.43","60.07","68.63"
"1985M12","50.37","62.45","73.51"
"1986M01","51.45","70.46","83.27"
"1986M02","54.45","75.22","87.17"
"1986M03","63.69","76.86","88.26"
"1986M04","64.92","76.11","88.07"
"1986M05","64.07","72.6","78.89"
"1986M06","52.99","62.59","70.56"
"1986M07","48.44","57.61","66.46"
"1986M08","47.53","57.19","66.85"
"1986M09","45.96","57.35","66.28"
"1986M10","45.48","55.98","64.25"
"1986M11","46.74","57.47","66.19"
"1986M12","50.01","60.82","69.73"
"1987M01","51.91","66.17","78.88"
"1987M02","51.93","70.14","79.4"
"1987M03","55.03","73.89","85.69"
"1987M04","65.4","74.89","83.35"
"1987M05","62.93","73.01","77.89"
"1987M06","52.43","62.05","70.61"
"1987M07","52.43","60.38","69.49"
"1987M08","52.17","61.14","69.09"
"1987M09","51.44","62.88","72.2"
"1987M10","51.82","62.85","71.6"
"1987M11","51.81","63.84","72.43"
"1987M12","54.87","68.96","78.71"
"1988M01","54.21","68.48","79.09"
"1988M02","53.53","69.77","79.46"
"1988M03","61.37","73.25","80.62"
"1988M04","65.18","72.26","78.34"
"1988M05","61.63","68.82","76.59"
"1988M06","56.2","63.28","71.13"
"1988M07","57.1","63.4","71.84"
"1988M08","56.21","65.43","74.19"
"1988M09","53.89","64.07","72.67"
"1988M10","51.16","62.83","71.71"
"1988M11","51.55","65.37","74.69"
"1988M12","51.61","64.32","72.83"
"1989M01","51.56","64.49","73.91"
"1989M02","57.28","70.2","79.38"
"1989M03","62.13","75.28","84.49"
"1989M04","68.9","78.9","88.31"
"1989M05","62.97","73.39","80.53"
"1989M06","56.39","64.16","72.15"
"1989M07","49.82","58.41","66.14"
"1989M08","48.39","58.05","67.77"
"1989M09","46.85","56.22","65.02"
"1989M10","47.13","56.21","64.77"
"1989M11","45.57","55.4","65.81"
"1989M12","45.53","55.22","63.51"
"1990M01","42.83","54.88","61.86"
"1990M02","43.72","55.32","61.85"
"1990M03","47.98","62.66","69.18"
"1990M04","52.69","61.84","66.97"
"1990M05","48.24","56.1","64.4"
"1990M06","42.51","49.27","57.94"
"1990M07","37.61","44.39","51.04"
"1990M08","36.85","42.69","49.8"
"1990M09","35.25","44.12","52.34"
"1990M10","32.05","43.06","50.93"
"1990M11","36.56","49.28","57.32"
"1990M12","40.2","52.92","62.52"
"1991M01","43.11","57.16","66.72"
"1991M02","46.29","61.32","70.99"
"1991M03","53.24","63.19","73.15"
"1991M04","60.6","67.73","70.93"
"1991M05","55.69","63.23","63.93"
"1991M06","41.47","49.96","55.14"
"1991M07","39.27","46.7","53.72"
"1991M08","36.73","45.69","51.75"
"1991M09","36.06","45.18","51.34"
"1991M10","35.24","44.66","51.56"
"1991M11","38.54","48.78","56.69"
"1991M12","41.9","53.61","60.59"
"1992M01","44.99","56.8","62.64"
"1992M02","45.06","58.85","64.87"
"1992M03","46.09","59.25","66.48"
"1992M04","52.43","59.55","60.39"
"1992M05","45.44","51.55","58.29"
"1992M06","39.34","46.64","54.04"
"1992M07","36.67","44.97","53.77"
"1992M08","36.56","44.92","52.02"
"1992M09","34.99","43.3","50.66"
"1992M10","33.44","41.6","47.45"
"1992M11","32.78","40.4","46.45"
"1992M12","31.26","38.97","43.86"
"1993M01","32.98","41.46","45.16"
"1993M02","37.22","46.59","50.47"
"1993M03","43.7","57.99","64.46"
"1993M04","59.94","67.11","64.16"
"1993M05","58.83","67.55","71.69"
"1993M06","50.43","60.3","66.7"
"1993M07","43.04","53.76","61.09"
"1993M08","41.89","53.15","61.87"
"1993M09","37.34","48.21","56.59"
"1993M10","37.34","46.08","53.81"
"1993M11","41.32","51.79","60.16"
"1993M12","39.59","51.42","59.42"
"1994M01","41.93","56.67","64.62"
"1994M02","45.47","63.12","73.48"
"1994M03","61.85","73.3","83.05"
"1994M04","67.59","78.05","80.01"
"1994M05","62.42","73.09","78.47"
"1994M06","47.29","57","64.72"
"1994M07","45.19","53.15","61.67"
"1994M08","40.24","50.93","58.75"
"1994M09","38.61","49.51","56.64"
"1994M10","38.1","49.33","56.36"
"1994M11","45.71","54.13","61.56"
"1994M12","50","62.24","68.46"
"1995M01","56.17","68.71","79.02"
"1995M02","53.99","68.62","78.05"
"1995M03","49.99","68.73","79.53"
"1995M04","60.13","66.96","67.18"
"1995M05","53.16","62.26","60.48"
"1995M06","43.81","54.05","59.16"
"1995M07","39.93","50.13","56.46"
"1995M08","37.69","48.47","55.26"
"1995M09","39.95","49.96","57.5"
"1995M10","44.5","54.6","63.21"
"1995M11","47.52","58.59","66.14"
"1995M12","46.61","59.31","66.58"
"1996M01","50.46","61.94","69.32"
"1996M02","54.09","68.6","76.92"
"1996M03","59.28","76.71","88.6"
"1996M04","75.74","85.65","86.17"
"1996M05","69.55","78.55","80.62"
"1996M06","56.48","67.28","73.04"
"1996M07","49.7","60.5","69.82"
"1996M08","51.48","61.78","69.98"
"1996M09","54.59","66.69","75.06"
"1996M10","55.08","65.86","74.08"
"1996M11","62.1","78.24","88.81"
"1996M12","65.36","81.84","92.52"
"1997M01","67.55","81.96","97.98"
"1997M02","64.61","83.29","87.13"
"1997M03","78.34","84.26","84.61"
"1997M04","72.4","79.08","78.48"
"1997M05","65.78","75.36","81.35"
"1997M06","58.21","75.23","83.04"
"1997M07","58.44","69.39","76.49"
"1997M08","59.91","73.82","79.7"
"1997M09","58.12","73.61","83.78"
"1997M10","55.35","70.46","81.12"
"1997M11","54.79","67.7","77.04"
"1997M12","48.67","64.25","74.7"
"1998M01","49.9","64.44","71.59"
"1998M02","44.89","59.52","67.44"
"1998M03","44.25","61.38","68.93"
"1998M04","61.41","69.81","62.1"
"1998M05","63.46","73.25","71.46"
"1998M06","60.61","73.06","79.04"
"1998M07","56.81","70.29","79.88"
"1998M08","50.44","68.26","80.46"
"1998M09","44.83","59.44","67.58"
"1998M10","39.42","52.99","63.29"
"1998M11","35.39","48.41","57.26"
"1998M12","35.79","47.8","56.59"
"1999M01","35.46","50.04","57.89"
"1999M02","41.07","55.54","65.68"
"1999M03","54.65","62.66","71.64"
"1999M04","53.67","63.64","66.72"
"1999M05","55.18","70.82","73.52"
"1999M06","54.45","64.86","72.05"
"1999M07","44.7","58.22","67.17"
"1999M08","39.16","54.02","64.32"
"1999M09","40.94","51.88","60.99"
"1999M10","36.86","49.19","58.51"
"1999M11","40.32","52.64","60.52"
"1999M12","39.17","53.27","61.73"
"2000M01","52.38","64.63","73.73"
"2000M02","57.65","74.14","85.2"
"2000M03","58.15","77.3","89.31"
"2000M04","66.44","79.17","81.46"
"2000M05","58.71","67.93","69.81"
"2000M06","51.93","60.91","67.22"
"2000M07","46.61","57.57","66.66"
"2000M08","46.8","58.76","67.69"
"2000M09","46.64","59.43","68.92"
"2000M10","47.56","59.49","69"
"2000M11","51.02","63.86","74"
"2000M12","53.41","67.46","79.04"
"2001M01","60.66","79.93","91.36"
"2001M02","65.38","85.66","98"
"2001M03","n/a","n/a","n/a"
"2001M04","n/a","n/a","n/a"
"2001M05","n/a","n/a","n/a"
"2001M06","n/a","n/a","n/a"
"2001M07","n/a","n/a","n/a"
"2001M08","67.15","84.53","92.78"
"2001M09","66.61","85.24","97.33"
"2001M10","70.45","88.23","101.91"
"2001M11","77.26","98.08","112.8"
"2001M12","82.69","105.64","120.32"
"2002M01","83.56","107.8","126.22"
"2002M02","63.77","91.33","106.16"
"2002M03","81.25","91.06","104.39"
"2002M04","78.02","87.9","79.5"
"2002M05","74.78","87.17","91.08"
"2002M06","66.23","79.16","86.46"
"2002M07","55.15","67.1","74.48"
"2002M08","58.38","71.02","80.82"
"2002M09","56.48","70.97","80.89"
"2002M10","54.22","70.86","81.46"
"2002M11","55.01","71.87","83.39"
"2002M12","58.29","73.28","84.01"
"2003M01","61.63","79.94","91.55"
"2003M02","60.72","78.86","90.36"
"2003M03","57.93","81.53","93.35"
"2003M04","82.79","95.27","90.15"
"2003M05","82.64","95.79","94.91"
"2003M06","66.89","80.66","88.14"
"2003M07","58.96","71.45","81.41"
"2003M08","58.14","71.32","80.91"
"2003M09","53.14","69.39","78.88"
"2003M10","55.21","69.44","78.63"
"2003M11","55.88","68.93","79.23"
"2003M12","55.72","69.48","77.51"
"2004M01","61.61","75.5","84.59"
"2004M02","61.63","83.48","93.25"
"2004M03","63.09","86.37","97.06"
"2004M04","86.33","96.07","92.13"
"2004M05","73.56","84.98","86.5"
"2004M06","60.25","75.82","82.91"
"2004M07","56.02","72.8","80.81"
"2004M08","54.15","69","78.96"
"2004M09","54.5","69.61","79.89"
"2004M10","51.65","66.56","77.26"
"2004M11","56.56","69.98","79.77"
"2004M12","58.93","71.26","79.38"
"2005M01","60.82","77.74","85.2"
"2005M02","57.55","75.39","82.97"
"2005M03","77.91","80.1","80.56"
"2005M04","80.19","86.8","81.44"
"2005M05","66.29","79.78","83.93"
"2005M06","64.84","76.91","83.48"
"2005M07","51.43","66","73.71"
"2005M08","52.5","65.75","75.45"
"2005M09","50.46","63.81","73.64"
"2005M10","50.46","63.81","73.64"
"2005M11","49.66","65.84","76.73"
"2005M12","51.16","67.26","77.35"
"2006M01","52.9","69.5","78.06"
"2006M02","54.06","71.13","79.11"
"2006M03","54.07","76.13","84.56"
"2006M04","73.07","87.72","89.32"
"2006M05","65.84","83.76","91.21"
"2006M06","68.41","81.41","89.42"
"2006M07","51.99","69.12","78.01"
"2006M08","49.32","67.54","77.59"
"2006M09","51.87","68.24","79.36"
"2006M10","53.15","70.35","81.98"
"2006M11","53.93","68.01","79.6"
"2006M12","53.13","68.95","79.37"
"2007M01","56.59","73.35","84.55"
"2007M02","62.27","79.6","88.85"
"2007M03","65.1","82.83","90.77"
"2007M04","79.08","87.56","85.82"
"2007M05","69.33","78.58","82.98"
"2007M06","63.34","75.94","82.47"
"2007M07","54.11","72.65","81.04"
"2007M08","53.47","73.35","84.58"
"2007M09","52.73","76.89","86.65"
"2007M10","55.09","71.29","84.92"
"2007M11","56.83","75.12","84.38"
"2007M12","55.84","72.91","82.2"
"2008M01","56.41","75.48","85.8"
"2008M02","62.11","82.95","94.24"
"2008M03","81.49","88.96","97.55"
"2008M04","76.61","91.04","92.47"
"2008M05","80.95","94.81","98.39"
"2008M06","68.97","87.91","96.37"
"2008M07","58.66","77.74","88.02"
"2008M08","54.43","73.88","84.12"
"2008M09","52.22","73.6","84.44"
"2008M10","50","70.11","82.84"
"2008M11","50.71","70.41","81.76"
"2008M12","53.66","70.98","81.04"
"2009M01","61.94","79.17","91.7"
"2009M02","61.4","81.95","94.88"
"2009M03","61.37","87.44","99.28"
"2009M04","80.22","96.75","100.34"
"2009M05","80.2","96.42","101.46"
"2009M06","69.25","86.91","94.95"
"2009M07","54.3","73.78","82.29"
"2009M08","53.24","73.04","82.81"
"2009M09","49.99","72.03","80.79"
"2009M10","51.22","70.93","80.24"
"2009M11","56.94","74.59","83.59"
"2009M12","63.18","81.42","90.59"
"2010M01","71.06","95.39","108.12"
"2010M02","73.91","99.13","111.34"
"2010M03","85.23","104.47","114.08"
"2010M04","96.53","108.68","116.7"
"2010M05","84.62","105.32","112.74"
"2010M06","75.1","97.13","106.18"
"2010M07","67.47","88.04","100.41"
"2010M08","70.8","90.17","104.22"
"2010M09","67.62","87.08","99.88"
"2010M10","71.71","88.79","100.4"
"2010M11","76.45","92.2","103.91"
"2010M12","67.62","87.08","99.88"